…
1. Put "meal" and "attendance" as their own columns, with the events living in a new column.


```r
(guest_long <- guest %>% 
  pivot_longer(cols      = c(-party, -name), 
               names_to  = c(".value", "event"),
               names_sep = "_"))
```

```
## # A tibble: 90 x 5
##    party name            event   meal       attendance
##    <dbl> <chr>           <chr>   <chr>      <chr>     
##  1     1 Sommer Medrano  wedding PENDING    PENDING   
##  2     1 Sommer Medrano  brunch  PENDING    PENDING   
##  3     1 Sommer Medrano  golf    <NA>       PENDING   
##  4     1 Phillip Medrano wedding vegetarian CONFIRMED 
##  5     1 Phillip Medrano brunch  Menu C     CONFIRMED 
##  6     1 Phillip Medrano golf    <NA>       CONFIRMED 
##  7     1 Blanka Medrano  wedding chicken    CONFIRMED 
##  8     1 Blanka Medrano  brunch  Menu A     CONFIRMED 
##  9     1 Blanka Medrano  golf    <NA>       CONFIRMED 
## 10     1 Emaan Medrano   wedding PENDING    PENDING   
## # … with 80 more rows
```

2. Use `tidyr::separate()` to split the name into two columns: "first" and "last". Then, re-unite them with `tidyr::unite()`.


```r
guest_long %>% 
  separate(name, into = c("first", "last"), sep = " ") %>% 
  unite(col = "name", first, last, sep = " ")
```

```
## # A tibble: 90 x 5
##    party name            event   meal       attendance
##    <dbl> <chr>           <chr>   <chr>      <chr>     
##  1     1 Sommer Medrano  wedding PENDING    PENDING   
##  2     1 Sommer Medrano  brunch  PENDING    PENDING   
##  3     1 Sommer Medrano  golf    <NA>       PENDING   
##  4     1 Phillip Medrano wedding vegetarian CONFIRMED 
##  5     1 Phillip Medrano brunch  Menu C     CONFIRMED 
##  6     1 Phillip Medrano golf    <NA>       CONFIRMED 
##  7     1 Blanka Medrano  wedding chicken    CONFIRMED 
##  8     1 Blanka Medrano  brunch  Menu A     CONFIRMED 
##  9     1 Blanka Medrano  golf    <NA>       CONFIRMED 
## 10     1 Emaan Medrano   wedding PENDING    PENDING   
## # … with 80 more rows
```
…
5. Put the data back to the way it was.


```r
guest_long %>% 
  pivot_wider(id_cols     = c(party, name), 
              names_from  = event, 
              names_sep   = "_", 
              values_from = c(meal, attendance))
```

```
## # A tibble: 30 x 8
##    party name  meal_wedding meal_brunch meal_golf attendance_wedd…
##    <dbl> <chr> <chr>        <chr>       <chr>     <chr>           
##  1     1 Somm… PENDING      PENDING     <NA>      PENDING         
##  2     1 Phil… vegetarian   Menu C      <NA>      CONFIRMED       
##  3     1 Blan… chicken      Menu A      <NA>      CONFIRMED       
##  4     1 Emaa… PENDING      PENDING     <NA>      PENDING         
##  5     2 Blai… chicken      Menu C      <NA>      CONFIRMED       
##  6     2 Nige… <NA>         <NA>        <NA>      CANCELLED       
##  7     3 Sine… PENDING      PENDING     <NA>      PENDING         
##  8     4 Ayra… vegetarian   Menu B      <NA>      PENDING         
##  9     5 Atla… PENDING      PENDING     <NA>      PENDING         
## 10     5 Denz… fish         Menu B      <NA>      CONFIRMED       
## # … with 20 more rows, and 2 more variables: attendance_brunch <chr>,
## #   attendance_golf <chr>
```

6. You also have a list of emails for each party, in this worksheet under the variable `email`. Change this so that each person gets their own row. Use `tidyr::separate_rows()`


```r
email %>% 
  separate_rows(guest, sep = ", ")
```

```
## # A tibble: 28 x 2
##    guest           email              
##    <chr>           <chr>              
##  1 Sommer Medrano  sommm@gmail.com    
##  2 Phillip Medrano sommm@gmail.com    
##  3 Blanka Medrano  sommm@gmail.com    
##  4 Emaan Medrano   sommm@gmail.com    
##  5 Blair Park      bpark@gmail.com    
##  6 Nigel Webb      bpark@gmail.com    
##  7 Sinead English  singlish@hotmail.ca
##  8 Ayra Marks      marksa42@gmail.com 
##  9 Jolene Welsh    jw1987@hotmail.com 
## 10 Hayley Booker   jw1987@hotmail.com 
## # … with 18 more rows
```
…
- A `label` column with `"Sample A"` in its entries.
- 100 random observations drawn from the N(0,1) distribution in the column `x`
- `y` calculated as the `x` values + N(0,1) error. 


```r
n <- 100
tibble(label = "Sample A",
	   x = rnorm(n),
	   y = x + rnorm(n))
```

```
## # A tibble: 100 x 3
##    label         x       y
##    <chr>     <dbl>   <dbl>
##  1 Sample A -0.202  0.371 
##  2 Sample A -1.72  -3.40  
##  3 Sample A -1.07  -0.433 
##  4 Sample A  0.418 -0.0261
##  5 Sample A -0.839 -0.460 
##  6 Sample A  1.35   1.36  
##  7 Sample A -0.633 -0.0600
##  8 Sample A  2.22   1.72  
##  9 Sample A -0.152 -1.26  
## 10 Sample A -0.282  0.431 
## # … with 90 more rows
```
2. Generate a Gaussian sample of size 100 for each combination of the following means (`mu`) and standard deviations (`sd`).


```r
n <- 100
mu <- c(-5, 0, 5)
sd <- c(1, 3, 10)
tibble(mu = mu, sd = sd) %>% 
  group_by_all() %>% 
  mutate(z = list(rnorm(n, mu, sd))) %>% 
  unnest(z)
```

```
## # A tibble: 300 x 3
## # Groups:   mu, sd [3]
##       mu    sd     z
##    <dbl> <dbl> <dbl>
##  1    -5     1 -5.47
##  2    -5     1 -4.44
##  3    -5     1 -5.70
##  4    -5     1 -5.70
##  5    -5     1 -5.15
##  6    -5     1 -2.71
##  7    -5     1 -4.16
##  8    -5     1 -4.91
##  9    -5     1 -5.17
## 10    -5     1 -6.53
## # … with 290 more rows
```
…
